p,mandelbrot_set_parallel_1,mandelbrot_set_parallel_2,mandelbrot_set_parallel_3,mandelbrot_set_parallel_4,mandelbrot_set_parallel_5,mandelbrot_set_parallel_6,mandelbrot_set_parallel_7,mandelbrot_set_parallel_8,mandelbrot_set_parallel_9,mandelbrot_set_parallel_10
250,10.488886594772339,5.37205958366394,3.697389841079712,2.9601786136627197,2.5192952156066895,2.1772522926330566,1.9282736778259277,1.7125649452209473,1.633746862411499,1.534658432006836
500,42.07452034950256,21.601873636245728,14.847923755645752,11.65184211730957,9.994551658630371,8.681398153305054,7.818339109420776,7.012208700180054,6.3079469203948975,5.841950416564941
750,96.12402391433716,48.7947940826416,33.29383587837219,26.21264123916626,22.524673223495483,19.386626958847046,17.37021517753601,15.38276720046997,14.153766870498657,12.93195629119873
1000,168.28078866004944,87.44850611686707,58.52037978172302,46.65865969657898,39.753113985061646,34.607476472854614,30.95510196685791,27.466756105422974,25.7700138092041,23.104559183120728
1250,264.471093416214,134.95955514907837,92.39257645606995,73.6176655292511,62.80321288108826,54.594972133636475,48.00648474693298,43.65386772155762,39.36656212806702,36.492522954940796
1500,384.063759803772,198.37723779678345,137.10151171684265,107.18074345588684,90.7486002445221,80.27980518341064,70.0165286064148,63.81028985977173,58.1685528755188,53.180155992507935
1750,519.4226791858673,266.00543785095215,181.19282817840576,146.3012957572937,125.11049842834473,107.61596465110779,95.64176774024963,86.2687509059906,78.33169388771057,72.89531350135803
2000,676.1384875774384,348.3905715942383,238.8918673992157,190.42731976509094,162.2425343990326,140.937397480011,127.6631555557251,112.03825449943542,105.78760981559753,99.38414525985718
2250,861.1262090206146,444.42277359962463,306.9072251319885,247.48238325119019,204.33368492126465,179.0927495956421,161.37187385559082,143.1452145576477,132.27603721618652,130.54005455970764
2500,1057.8327786922455,544.1874775886536,375.3381280899048,303.0712659358978,261.6994912624359,224.30704951286316,197.15204215049744,180.66125774383545,165.84262013435364,151.39694595336914
